<?xml version="1.0" encoding="UTF-8"?>
<testsuite name="com.debc.UtilTest" tests="1" skipped="0" failures="0" errors="0" timestamp="2017-09-17T10:37:11" hostname="Gutanu-PC" time="0.0">
  <properties/>
  <testcase name="replace" classname="com.debc.UtilTest" time="0.0"/>
  <system-out><![CDATA[email replaced: something_example_com
]]></system-out>
  <system-err><![CDATA[]]></system-err>
</testsuite>
